…
home_care_hrs_total <-
  soc_care12 %>% 
  filter(hc_client == "Yes") %>%      #keep only home care clients
  filter(age_grp != "18-<65") %>%     #keep only those over 65
  filter(council != "Highland") %>%   #remove highland due to missing data
  group_by(total_hrs) %>% 
  summarise(N = n()) %>% 
  mutate(freq = N / sum(N),
         pct = round((freq * 100), 2))

home_care_hrs_council
```

    ## # A tibble: 155 x 5
    ## # Groups:   council [31]
    ##          council total_hrs     N       freq   pct
    ##           <fctr>    <fctr> <int>      <dbl> <dbl>
    ##  1 Aberdeen City        <4   552 0.30941704  30.9
    ##  2 Aberdeen City      4-10   658 0.36883408  36.9
    ##  3 Aberdeen City     10-15   421 0.23598655  23.6
    ##  4 Aberdeen City     15-20   120 0.06726457   6.7
    ##  5 Aberdeen City    over20    33 0.01849776   1.8
    ##  6 Aberdeenshire        <4   879 0.48085339  48.1
    ##  7 Aberdeenshire      4-10   614 0.33588621  33.6
    ##  8 Aberdeenshire     10-15   209 0.11433260  11.4
    ##  9 Aberdeenshire     15-20    56 0.03063457   3.1
    ## 10 Aberdeenshire    over20    70 0.03829322   3.8
    ## # ... with 145 more rows
…
