…
#join tables together
pop_data_combined <-
  full_join(pop_data_total, pop_data_65plus)  

pop_data_combined
```

```
## # A tibble: 32 x 3
##                council pop_total pop_over_65
##                  <chr>     <dbl>       <dbl>
##  1       Aberdeen City    222793       32031
##  2       Aberdeenshire    252973       40663
##  3               Angus    115978       23061
##  4       Argyll & Bute     88166       19336
##  5    Clackmannanshire     51442        8212
##  6 Dumfries & Galloway    151324       33050
##  7         Dundee City    147268       24597
##  8       East Ayrshire    122767       21307
##  9 East Dunbartonshire    105026       20428
## 10        East Lothian     99717       17763
## # ... with 22 more rows
```
…
```
## Joining, by = "council"
```

```
## Warning: Column `council` joining character vector and factor, coercing
## into character vector
```

```r
pop_data_combined
```

```
## # A tibble: 32 x 4
##                council pop_total pop_over_65 any_care_total
##                  <chr>     <dbl>       <dbl>          <int>
##  1       Aberdeen City    222793       32031           3337
##  2       Aberdeenshire    252973       40663           4157
##  3               Angus    115978       23061           4571
##  4       Argyll & Bute     88166       19336           1904
##  5    Clackmannanshire     51442        8212           1541
##  6 Dumfries & Galloway    151324       33050           3733
##  7         Dundee City    147268       24597           5759
##  8       East Ayrshire    122767       21307           4099
##  9 East Dunbartonshire    105026       20428           2580
## 10        East Lothian     99717       17763           2752
## # ... with 22 more rows
```
…
```
## Joining, by = "council"
```

```
## Warning: Column `council` joining character vector and factor, coercing
## into character vector
```

```r
pop_data_combined
```

```
## # A tibble: 32 x 5
##                council pop_total pop_over_65 any_care_total
##                  <chr>     <dbl>       <dbl>          <int>
##  1       Aberdeen City    222793       32031           3337
##  2       Aberdeenshire    252973       40663           4157
##  3               Angus    115978       23061           4571
##  4       Argyll & Bute     88166       19336           1904
##  5    Clackmannanshire     51442        8212           1541
##  6 Dumfries & Galloway    151324       33050           3733
##  7         Dundee City    147268       24597           5759
##  8       East Ayrshire    122767       21307           4099
##  9 East Dunbartonshire    105026       20428           2580
## 10        East Lothian     99717       17763           2752
## # ... with 22 more rows, and 1 more variables: any_care_over_65s <int>
```
…
##calculate ratios per 1000 population


```r
#calculate per 1000
pop_data_combined %<>%
  mutate(total_per_thousand = (any_care_total / pop_total) * 1000) %>%
  mutate(over_65s_per_thousand = (any_care_over_65s / pop_over_65) * 1000)

pop_data_combined
```

```
## # A tibble: 32 x 7
##                council pop_total pop_over_65 any_care_total
##                  <chr>     <dbl>       <dbl>          <int>
##  1       Aberdeen City    222793       32031           3337
##  2       Aberdeenshire    252973       40663           4157
##  3               Angus    115978       23061           4571
##  4       Argyll & Bute     88166       19336           1904
##  5    Clackmannanshire     51442        8212           1541
##  6 Dumfries & Galloway    151324       33050           3733
##  7         Dundee City    147268       24597           5759
##  8       East Ayrshire    122767       21307           4099
##  9 East Dunbartonshire    105026       20428           2580
## 10        East Lothian     99717       17763           2752
## # ... with 22 more rows, and 3 more variables: any_care_over_65s <int>,
## #   total_per_thousand <dbl>, over_65s_per_thousand <dbl>
```
…
