…
Tidy data
=========

Let's start by looking at each set of data

Glimpse
-------

``` r
soc_care10
```

    ## # A tibble: 76,202 x 19
    ##    LAcode clientID AgeGRP ClientGRP GenderISO meals bandHRSLA bandHRSpri
    ##     <int>    <chr>  <int>     <chr>     <chr> <int>     <int>      <int>
    ##  1    100    ZZXJX      5         .         .     1         0          0
    ##  2    100    VLKT8      4         4         1     1         0          3
    ##  3    100    418H1      3         4         1     0         0          5
    ##  4    100    7SF1N      4         4         1     0         0          5
    ##  5    100    TKCFN      3         4         1     0         0          8
    ##  6    100    5EFK3      3         4         2     1         0          8
    ##  7    100    DAK8A      3         4         1     0         0          3
    ##  8    100    V7E3J      3         4         1     0         0          4
    ##  9    100    17D8B      3         4         1     0         5          0
    ## 10    100    Z3BO7      5         .         .     1         0          0
    ## # ... with 76,192 more rows, and 11 more variables: bandHRSvol <int>,
    ## #   bandHRSPC <int>, bandHRSTT <int>, HCclient <int>, LivingArr <int>,
    ## #   Staff <int>, HousingType_OV <int>, Laundry_OV <int>,
    ## #   Shopping_OV <int>, HousingSupport_OV <int>, IoRN_OV <chr>

``` r
soc_care11
```

    ## # A tibble: 142,466 x 22
    ##    LAcode clientID AgeGRP ClientGRP GenderISO meals bandHRSLA bandHRSpri
    ##     <int>    <chr>  <int>     <int>     <int> <int>     <int>      <int>
    ##  1    100    17L9J      3         4         2    NA         0          0
    ##  2    100    3Z8FK      4         4         2    NA         0          0
    ##  3    100    BKKAY      3         1         2    NA         0          0
    ##  4    100    8BT1I      3         1         2     1         0          0
    ##  5    100    XMH3X      3         4         1    NA         0          2
    ##  6    100    YQ6HE      4         4         1    NA         0          5
    ##  7    100    3AAZR      4         4         2    NA         0          4
    ##  8    100    TTYAU      3         4         1    NA         0          8
    ##  9    100    1XJ19      3         4         2    NA         8          0
    ## 10    100    6C7EW      4         4         2    NA         1          0
    ## # ... with 142,456 more rows, and 14 more variables: bandHRSvol <int>,
    ## #   bandHRSPC <int>, bandHRSTT <int>, HCclient <int>,
    ## #   communityalarmonly <int>, telecareonly <int>,
    ## #   communityandtelecare <int>, LivingArr <int>, Staff <int>,
    ## #   HousingType_OV <int>, Laundry_OV <int>, Shopping_OV <int>,
    ## #   HousingSupport_OV <int>, IoRN_OV <chr>

``` r
soc_care12
```

    ## # A tibble: 141,144 x 26
    ##    LAcode clientID AgeGRP ClientGRP GenderISO meals error1 error newhours
    ##     <int>    <chr>  <int>     <int>     <int> <int>  <chr> <chr>    <int>
    ##  1    100    HRXYJ      3         4         2    NA   <NA>  <NA>       NA
    ##  2    100    U61VU      4         4         2    NA   <NA>  <NA>        2
    ##  3    100    XP2LW      3         1         2     1   <NA>  <NA>       NA
    ##  4    100    3VXIH      3         4         1    NA   <NA>  <NA>        3
    ##  5    100    4CC3E      4         4         1    NA   <NA>  <NA>        7
    ##  6    100    L311I      3         4         2    NA   <NA>  <NA>       18
    ##  7    100    OUG1F      4         4         2    NA   <NA>  <NA>        1
    ##  8    100    BU0AY      2         1         2    NA   <NA>  <NA>       NA
    ##  9    100    C51LO      3         4         1    NA   <NA>  <NA>       NA
    ## 10    100    KYLU9      4         4         2    NA   <NA>  <NA>        3
    ## # ... with 141,134 more rows, and 17 more variables: HCFlag <int>,
    ## #   bandHRSLA <int>, bandHRSpri <int>, bandHRSvol <int>, bandHRSPC <int>,
    ## #   bandHRSTT <int>, HCclient <int>, communityalarmonly <int>,
    ## #   telecareonly <int>, communityandtelecare <int>, LivingArr <int>,
    ## #   Staff <int>, HousingType_OV <int>, Laundry_OV <int>,
    ## #   Shopping_OV <int>, HousingSupport_OV <int>, IoRN_OV <chr>
…
soc_care11$council <- factor(soc_care11$council,
                            levels = la_levels,
                            labels = la_labels)

soc_care12$council <- factor(soc_care12$council,
                            levels = la_levels,
                            labels = la_labels)

fct_count(soc_care10$council)  #Count factor levels as diagnostic check
```

    ## # A tibble: 32 x 2
    ##                      f     n
    ##                 <fctr> <int>
    ##  1       Aberdeen City  2087
    ##  2       Aberdeenshire  4284
    ##  3               Angus  2843
    ##  4       Argyll & Bute   920
    ##  5    Clackmannanshire  2395
    ##  6 Dumfries & Galloway  2513
    ##  7         Dundee City  2479
    ##  8       East Ayrshire  1904
    ##  9 East Dunbartonshire  1452
    ## 10        East Lothian  1790
    ## # ... with 22 more rows

``` r
fct_count(soc_care11$council)
```

    ## # A tibble: 32 x 2
    ##                      f     n
    ##                 <fctr> <int>
    ##  1       Aberdeen City  3337
    ##  2       Aberdeenshire  4157
    ##  3               Angus  4571
    ##  4       Argyll & Bute  1904
    ##  5    Clackmannanshire  1541
    ##  6 Dumfries & Galloway  3733
    ##  7         Dundee City  5759
    ##  8       East Ayrshire  4099
    ##  9 East Dunbartonshire  2580
    ## 10        East Lothian  2752
    ## # ... with 22 more rows

``` r
fct_count(soc_care12$council)
```

    ## # A tibble: 32 x 2
    ##                      f     n
    ##                 <fctr> <int>
    ##  1       Aberdeen City  3352
    ##  2       Aberdeenshire  3984
    ##  3               Angus  4290
    ##  4       Argyll & Bute  1942
    ##  5    Clackmannanshire  1612
    ##  6 Dumfries & Galloway  3785
    ##  7         Dundee City  5791
    ##  8       East Ayrshire  3736
    ##  9 East Dunbartonshire  2609
    ## 10        East Lothian  1785
    ## # ... with 22 more rows
…
