…
#Join these table together

summary_2012_table <-
  left_join(total_summary_2012, home_care_summary_2012) %>%
  left_join(., telecare_summary_2012)
```

    ## Joining, by = "council"
    ## Joining, by = "council"

``` r
summary_2012_table
```

    ## # A tibble: 32 x 10
    ##                council N_total freq_total pct_total N_homecare
    ##                 <fctr>   <int>      <dbl>     <dbl>      <int>
    ##  1       Aberdeen City    2969 0.02558490       2.6       1784
    ##  2       Aberdeenshire    3308 0.02850618       2.9       1828
    ##  3               Angus    3643 0.03139299       3.1       1326
    ##  4       Argyll & Bute    1774 0.01528717       1.5        836
    ##  5    Clackmannanshire    1317 0.01134905       1.1        546
    ##  6 Dumfries & Galloway    3171 0.02732561       2.7       1993
    ##  7         Dundee City    4991 0.04300918       4.3       1614
    ##  8       East Ayrshire    3086 0.02659313       2.7       1632
    ##  9 East Dunbartonshire    2208 0.01902710       1.9        963
    ## 10        East Lothian    1353 0.01165927       1.2       1175
    ## # ... with 22 more rows, and 5 more variables: freq_homecare <dbl>,
    ## #   pct_homecare <dbl>, N_telecare <int>, freq_telecare <dbl>,
    ## #   pct_telecare <dbl>
…
#join tables together
pop_data_combined_2011 <-
  full_join(pop_data_total, pop_data_65plus)  

pop_data_combined_2011
```

    ## # A tibble: 32 x 3
    ##                council pop_total pop_over_65
    ##                  <chr>     <dbl>       <dbl>
    ##  1       Aberdeen City    222793       32031
    ##  2       Aberdeenshire    252973       40663
    ##  3               Angus    115978       23061
    ##  4       Argyll & Bute     88166       19336
    ##  5    Clackmannanshire     51442        8212
    ##  6 Dumfries & Galloway    151324       33050
    ##  7         Dundee City    147268       24597
    ##  8       East Ayrshire    122767       21307
    ##  9 East Dunbartonshire    105026       20428
    ## 10        East Lothian     99717       17763
    ## # ... with 22 more rows
…
    ## Warning: Column `council` joining character vector and factor, coercing
    ## into character vector

``` r
#refactorise council
summary_2012_table$council <- as.factor(summary_2012_table$council)

#drop the total population column - we don't need it and it could get confusing

summary_2012_table <- select(summary_2012_table, -pop_total)

summary_2012_table
```

    ## # A tibble: 32 x 11
    ##                council pop_over_65 N_total freq_total pct_total N_homecare
    ##                 <fctr>       <dbl>   <int>      <dbl>     <dbl>      <int>
    ##  1       Aberdeen City       32031    2969 0.02558490       2.6       1784
    ##  2       Aberdeenshire       40663    3308 0.02850618       2.9       1828
    ##  3               Angus       23061    3643 0.03139299       3.1       1326
    ##  4       Argyll & Bute       19336    1774 0.01528717       1.5        836
    ##  5    Clackmannanshire        8212    1317 0.01134905       1.1        546
    ##  6 Dumfries & Galloway       33050    3171 0.02732561       2.7       1993
    ##  7         Dundee City       24597    4991 0.04300918       4.3       1614
    ##  8       East Ayrshire       21307    3086 0.02659313       2.7       1632
    ##  9 East Dunbartonshire       20428    2208 0.01902710       1.9        963
    ## 10        East Lothian       17763    1353 0.01165927       1.2       1175
    ## # ... with 22 more rows, and 5 more variables: freq_homecare <dbl>,
    ## #   pct_homecare <dbl>, N_telecare <int>, freq_telecare <dbl>,
    ## #   pct_telecare <dbl>
…
Finally, I'm going to calculate the per thousand proportions.

``` r
per_thousand_table <-
  summary_2012_table %>%
  mutate(any_care_per_thousand = (round((N_total / pop_over_65) * 1000, 1)),  
         homecare_per_thousand = (round((N_homecare / pop_over_65) * 1000, 1)),
         telecare_per_thousand = (round((N_telecare / pop_over_65) * 1000, 1))) %>%
  select(council, any_care_per_thousand, homecare_per_thousand, telecare_per_thousand)
per_thousand_table
```

    ## # A tibble: 32 x 4
    ##                council any_care_per_thousand homecare_per_thousand
    ##                 <fctr>                 <dbl>                 <dbl>
    ##  1       Aberdeen City                  92.7                  55.7
    ##  2       Aberdeenshire                  81.4                  45.0
    ##  3               Angus                 158.0                  57.5
    ##  4       Argyll & Bute                  91.7                  43.2
    ##  5    Clackmannanshire                 160.4                  66.5
    ##  6 Dumfries & Galloway                  95.9                  60.3
    ##  7         Dundee City                 202.9                  65.6
    ##  8       East Ayrshire                 144.8                  76.6
    ##  9 East Dunbartonshire                 108.1                  47.1
    ## 10        East Lothian                  76.2                  66.1
    ## # ... with 22 more rows, and 1 more variables: telecare_per_thousand <dbl>
…
